132,512,256,69.255570,68.795313
174,448,256,69.001856,71.321833
174,480,256,69.620451,72.058314
174,512,256,68.747305,69.089118
216,416,256,75.336492,74.578346
216,448,256,75.098731,71.333833
216,480,256,74.489715,71.982504
216,512,256,73.981324,61.015939
258,384,256,74.206998,71.762703
258,416,256,73.591465,72.171957
258,448,256,73.876361,70.822390
258,480,256,74.622245,72.237291
258,512,256,74.768164,60.378324
300,320,256,76.349765,71.179918
300,352,256,77.018523,71.597650
300,384,256,76.783683,69.833418
300,416,256,76.633587,66.472876
300,448,256,77.942922,70.139869
300,480,256,76.923282,64.325846
300,512,256,77.992654,67.358930
342,288,256,73.500707,71.014915
342,320,256,73.233466,64.993237
342,352,256,76.319080,73.521100
342,384,256,76.732522,69.608311
342,416,256,77.078982,71.908613
342,448,256,75.968017,64.323431
342,480,256,76.481640,71.786294
342,512,256,75.653583,60.740946
384,256,256,76.194389,72.425740
384,288,256,78.081430,74.839238
384,320,256,77.964287,69.867953
384,352,256,75.940545,65.071782
384,384,256,78.926229,68.694577
384,416,256,79.684890,69.483897
384,448,256,79.581581,70.326652
384,480,256,79.215452,72.297876
384,512,256,80.194768,67.493016
426,192,256,70.500469,74.999914
426,224,256,74.508162,79.169921
426,256,256,74.641507,72.822154
426,288,256,76.448743,75.353542
426,320,256,77.227634,71.290826
426,352,256,77.542311,72.789362
426,384,256,78.066333,68.363202
426,416,256,78.477792,71.195066
426,448,256,77.970738,63.811022
426,480,256,79.050910,71.835903
426,512,256,78.034574,60.495063
468,160,256,72.296921,82.721593
468,192,256,73.702979,79.617313
468,224,256,74.836301,81.122366
468,256,256,76.582158,71.416309
468,288,256,78.402904,74.920009
468,320,256,78.543669,69.915599
468,352,256,79.693728,71.313128
468,384,256,80.483045,62.951840
468,416,256,79.945263,70.156542
468,448,256,80.962800,67.345997
468,480,256,81.315329,70.904027
468,512,256,79.743347,60.415645
510,128,256,67.908571,76.213381
510,160,256,70.482603,84.270098
510,192,256,72.786333,81.376384
510,224,256,74.380569,79.220760
510,256,256,75.846674,72.676263
510,288,256,77.262413,74.544328
510,320,256,76.944112,69.196450
510,352,256,76.576087,64.251624
510,384,256,78.691291,66.534649
510,416,256,78.878135,63.200485
510,448,256,78.395009,62.145133
510,480,256,80.929767,71.066211
510,512,256,80.449416,67.523685
552,128,256,68.983327,78.466562
552,160,256,72.154873,77.070333
552,192,256,73.586458,71.233167
552,224,256,76.442418,80.587946
552,256,256,77.361713,73.829950
552,288,256,78.656308,70.083612
552,320,256,79.190033,68.380171
552,352,256,79.844465,68.626072
552,384,256,81.170681,66.468121
552,416,256,80.756636,69.116301
552,448,256,82.076438,64.018183
594,128,256,67.465111,78.267617
594,160,256,70.993320,73.491260
594,192,256,74.005243,72.984473
594,224,256,76.235986,77.930270
594,256,256,76.718390,73.747621
594,288,256,77.320896,69.945212
594,320,256,79.178968,66.917796
594,352,256,78.746907,69.581423
594,384,256,79.425764,60.132612
594,416,256,80.530659,65.993566
636,128,256,68.955426,79.403944
636,160,256,71.583835,72.909912
636,192,256,75.411469,72.929845
636,224,256,75.896454,70.283827
636,256,256,78.705024,74.487207
636,288,256,79.927346,69.640596
636,320,256,79.267539,65.337283
636,352,256,79.379704,61.211847
636,384,256,80.472607,66.237714
678,128,256,67.707497,75.025611
678,160,256,71.466570,77.471742
678,192,256,73.151643,68.152654
678,224,256,75.863313,76.039699
678,256,256,76.678197,67.931983
678,288,256,76.839931,63.441405
678,320,256,79.448300,65.516865
720,128,256,69.419480,74.577814
720,160,256,72.849781,76.233648
720,192,256,74.920535,67.735943
720,224,256,75.939175,68.380489
720,256,256,77.761447,68.451422
720,288,256,80.018947,70.108115
762,128,256,68.400475,74.700661
762,160,256,71.884673,72.852866
762,192,256,73.960481,70.580956
762,224,256,76.880123,73.270607
762,256,256,77.479663,71.762730
