294,320,512,83.834063,73.191901
294,640,384,84.417060,78.185614
294,640,512,82.042204,73.356940
588,320,384,82.705329,71.619317
588,320,512,90.119798,72.912993
588,640,256,87.098006,72.779631
588,640,384,87.824567,72.881857
588,640,512,85.517105,72.306779
