150, 128, 128, 57.079577, 77.276020
150, 128, 256, 61.113896, 75.945612
150, 160, 128, 60.402431, 88.841178
150, 160, 256, 64.055728, 88.582950
150, 192, 128, 60.809527, 82.136695
150, 192, 256, 64.683489, 81.910972
150, 224, 128, 64.329921, 79.348680
150, 224, 256, 65.932772, 78.928823
150, 256, 128, 66.122249, 77.304022
150, 256, 256, 65.809910, 75.406488
150, 288, 128, 66.456938, 89.760638
150, 288, 256, 67.373674, 87.437003
150, 320, 128, 65.688186, 78.838447
150, 320, 256, 67.072830, 75.928943
150, 352, 128, 67.495230, 89.042164
150, 352, 256, 67.220900, 87.651221
150, 384, 128, 68.289329, 76.584542
150, 384, 256, 67.708150, 74.073360
174, 128, 128, 59.407050, 77.546721
174, 128, 256, 62.732064, 76.954905
174, 160, 128, 62.577266, 88.482778
174, 160, 256, 65.263448, 87.907230
174, 192, 128, 64.417107, 80.324105
174, 192, 256, 67.529790, 80.321449
174, 224, 128, 66.830416, 79.404305
174, 224, 256, 68.732407, 79.060227
174, 256, 128, 66.229784, 77.729742
174, 256, 256, 67.910591, 74.937228
174, 288, 128, 68.624954, 89.835431
174, 288, 256, 69.184174, 87.387440
174, 320, 128, 68.862951, 79.589189
174, 320, 256, 64.587411, 77.235984
174, 352, 128, 70.044544, 90.123602
174, 352, 256, 69.229367, 87.187472
174, 384, 128, 69.523235, 77.505343
174, 384, 256, 69.786096, 73.160877
198, 128, 128, 60.963744, 79.683705
198, 128, 256, 63.852462, 77.848896
198, 160, 128, 64.651412, 79.501609
198, 160, 256, 66.540468, 79.665546
198, 192, 128, 66.688594, 77.103351
198, 192, 256, 68.552726, 76.679946
198, 224, 128, 68.554470, 79.674490
198, 224, 256, 69.860384, 78.998976
198, 256, 128, 69.308867, 76.241187
198, 256, 256, 70.051929, 72.531105
198, 288, 128, 70.481794, 77.905896
198, 288, 256, 70.244551, 78.492478
198, 320, 128, 71.078005, 76.503260
198, 320, 256, 71.055288, 74.568153
198, 352, 128, 71.767017, 79.510361
198, 352, 256, 71.168022, 77.782350
198, 384, 128, 72.114215, 74.616341
198, 384, 256, 72.074053, 70.843262
222, 128, 128, 59.067713, 78.592221
222, 128, 256, 65.624919, 78.902101
222, 160, 128, 65.887590, 79.510669
222, 160, 256, 67.682121, 79.124110
222, 192, 128, 67.688570, 77.631567
222, 192, 256, 69.363851, 75.556048
222, 224, 128, 70.155539, 79.727444
222, 224, 256, 70.998162, 79.174155
222, 256, 128, 71.004498, 75.972516
222, 256, 256, 70.962053, 74.591365
222, 288, 128, 70.879929, 78.861774
222, 288, 256, 72.024535, 77.559642
222, 320, 128, 71.845023, 76.769500
222, 320, 256, 71.913297, 74.212007
222, 352, 128, 72.576477, 79.659116
222, 352, 256, 72.313456, 76.612891
222, 384, 128, 73.241361, 77.466843
222, 384, 256, 72.555349, 70.285601
246, 128, 128, 63.829076, 77.984991
246, 128, 256, 66.339932, 77.726318
246, 160, 128, 67.191601, 90.266948
246, 160, 256, 68.657400, 89.256508
246, 192, 128, 69.221638, 80.725352
246, 192, 256, 70.505519, 78.835132
246, 224, 128, 70.899301, 79.762611
246, 224, 256, 71.352475, 78.562034
246, 256, 128, 70.408497, 76.115655
246, 256, 256, 72.756050, 71.878923
246, 288, 128, 73.231313, 90.559671
246, 288, 256, 73.090885, 87.276893
246, 320, 128, 72.654444, 76.811990
246, 320, 256, 73.205264, 75.000804
246, 352, 128, 72.910369, 89.906166
246, 352, 256, 73.463362, 85.452280
246, 384, 128, 73.595600, 76.514470
246, 384, 256, 74.597479, 77.068408
270, 128, 128, 64.991420, 79.036740
270, 128, 256, 66.455628, 79.020475
270, 160, 128, 67.297057, 79.492499
270, 160, 256, 69.086562, 79.048671
270, 192, 128, 70.076782, 78.713615
270, 192, 256, 70.417920, 76.570289
270, 224, 128, 71.655584, 79.727387
270, 224, 256, 70.359432, 78.331188
270, 256, 128, 72.164626, 79.753309
270, 256, 256, 72.391745, 74.879953
270, 288, 128, 71.493258, 79.660092
270, 288, 256, 73.028227, 77.820213
270, 320, 128, 73.761045, 76.655377
270, 320, 256, 73.575591, 72.735997
270, 352, 128, 73.515420, 77.007375
270, 352, 256, 73.342246, 76.547933
270, 384, 128, 68.515239, 73.891810
270, 384, 256, 74.422745, 70.671595
294, 128, 128, 65.528154, 78.476433
294, 128, 256, 67.083054, 78.513067
294, 160, 128, 67.960429, 90.628853
294, 160, 256, 69.057651, 89.184866
294, 192, 128, 70.033436, 83.030080
294, 192, 256, 70.897873, 78.397414
294, 224, 128, 72.070850, 79.604251
294, 224, 256, 71.986653, 78.772646
294, 256, 128, 72.015730, 74.958171
294, 256, 256, 72.465300, 72.591717
294, 288, 128, 67.221073, 89.497717
294, 288, 256, 74.214524, 86.038179
294, 320, 128, 74.004444, 77.156969
294, 320, 256, 74.186734, 74.017763
294, 352, 128, 74.090806, 86.674456
294, 352, 256, 74.348833, 84.975633
294, 384, 128, 75.252587, 73.573046
294, 384, 256, 75.007848, 70.226861
318, 128, 128, 66.171916, 77.511866
318, 128, 256, 66.327998, 78.180888
318, 160, 128, 68.873330, 89.106440
318, 160, 256, 69.128674, 87.781461
318, 192, 128, 70.301935, 82.983300
318, 192, 256, 71.811368, 77.853718
318, 224, 128, 72.499103, 79.738950
318, 224, 256, 72.605052, 78.266602
318, 256, 128, 73.956008, 76.754744
318, 256, 256, 73.382769, 70.733593
318, 288, 128, 73.318376, 90.009288
318, 288, 256, 74.330950, 84.513398
318, 320, 128, 74.675962, 77.650789
318, 320, 256, 74.782907, 73.374584
318, 352, 128, 74.155215, 89.630184
318, 352, 256, 75.364012, 83.923178
318, 384, 128, 74.834878, 72.896703
318, 384, 256, 75.604416, 69.946808
342, 128, 128, 66.813697, 78.928295
342, 128, 256, 67.429256, 75.551088
342, 160, 128, 69.604595, 79.835136
342, 160, 256, 70.090271, 79.118448
342, 192, 128, 69.710151, 78.627280
342, 192, 256, 70.766628, 76.098757
342, 224, 128, 69.179661, 79.910501
342, 224, 256, 72.909484, 77.391492
342, 256, 128, 73.453978, 78.648233
342, 256, 256, 73.688286, 71.828772
342, 288, 128, 73.882020, 79.100705
342, 288, 256, 74.708030, 76.460400
342, 320, 128, 74.369677, 73.176480
342, 320, 256, 75.561585, 73.418191
342, 352, 128, 73.803597, 79.713549
342, 352, 256, 76.008877, 75.310604
342, 384, 128, 75.016280, 73.312204
342, 384, 256, 75.993788, 67.952337
366, 128, 128, 67.693553, 79.512214
366, 128, 256, 67.255748, 76.204264
366, 160, 128, 70.299909, 79.789354
366, 160, 256, 69.845870, 78.011350
366, 192, 128, 72.460488, 78.640972
366, 192, 256, 71.953647, 75.273753
366, 224, 128, 73.439334, 79.781240
366, 224, 256, 73.452328, 77.354434
366, 256, 128, 72.446388, 78.611776
366, 256, 256, 73.198856, 70.534830
366, 288, 128, 74.472629, 78.606078
366, 288, 256, 75.204138, 76.411194
366, 320, 128, 74.534161, 74.767429
366, 320, 256, 76.106681, 70.142604
366, 352, 128, 74.667687, 78.060840
366, 352, 256, 76.251805, 75.478894
366, 384, 128, 75.514500, 72.748354
366, 384, 256, 77.085543, 68.338698
